<svg width="19" height="31" viewBox="0 0 19 31" fill="none" xmlns="http://www.w3.org/2000/svg">
<path d="M16 28L3 15.5L16 3" stroke="#414648" stroke-width="4.17" stroke-linecap="round" stroke-linejoin="round"/>
</svg>
