<svg width="21" height="19" viewBox="0 0 21 19" fill="none" xmlns="http://www.w3.org/2000/svg">
<ellipse cx="6.41626" cy="17.1818" rx="0.802005" ry="0.818182" stroke="#414648" stroke-width="1.6" stroke-linecap="round" stroke-linejoin="round"/>
<ellipse cx="17.6438" cy="17.1818" rx="0.802005" ry="0.818182" stroke="#414648" stroke-width="1.6" stroke-linecap="round" stroke-linejoin="round"/>
<path d="M0 0H3.20802L5.61403 13.9091H18.4461" stroke="#414648" stroke-width="1.6" stroke-linecap="round" stroke-linejoin="round"/>
<path d="M5.61378 10.6364H18.117C18.3083 10.6366 18.473 10.4989 18.5105 10.3076L19.9541 2.94397C19.9777 2.82373 19.9472 2.69904 19.871 2.60423C19.7947 2.50943 19.6808 2.4545 19.5606 2.45459H4.00977" stroke="#414648" stroke-width="1.6" stroke-linecap="round" stroke-linejoin="round"/>
</svg>
